{
    "KPlugin": {
        "Authors": [
            {
                "Email": "mart@kde.org",
                "Name": "Marco Martin",
                "Name[az]": "Marco Martin",
                "Name[ca@valencia]": "Marco Martin",
                "Name[ca]": "Marco Martin",
                "Name[cs]": "Marco Martin",
                "Name[en_GB]": "Marco Martin",
                "Name[es]": "Marco Martin",
                "Name[eu]": "Marco Martin",
                "Name[fi]": "Marco Martin",
                "Name[fr]": "Marco Martin",
                "Name[it]": "Marco Martin",
                "Name[ko]": "Marco Martin",
                "Name[nl]": "Marco Martin",
                "Name[pl]": "Marco Martin",
                "Name[pt]": "Marco Martin",
                "Name[ru]": "Marco Martin",
                "Name[sl]": "Marco Martin",
                "Name[sv]": "Marco Martin",
                "Name[tr]": "Marco Martin",
                "Name[uk]": "Marco Martin",
                "Name[vi]": "Marco Martin",
                "Name[x-test]": "xxMarco Martinxx",
                "Name[zh_CN]": "Marco Martin"
            }
        ],
        "Category": "",
        "Id": "org.kde.example.conditionalloader",
        "License": "GPLv2+",
        "Name": "Applet Test",
        "Name[az]": "Test vidjeti",
        "Name[ca@valencia]": "Miniaplicació de prova",
        "Name[ca]": "Miniaplicació de prova",
        "Name[cs]": "Test appletu",
        "Name[en_GB]": "Applet Test",
        "Name[es]": "Prueba de miniaplicación",
        "Name[eu]": "Aplikaziotxo-proba",
        "Name[fi]": "Sovelmatesti",
        "Name[fr]": "Test d'applets",
        "Name[it]": "Prova applet",
        "Name[ko]": "애플릿 테스트",
        "Name[nl]": "Test van applet",
        "Name[pl]": "Próba apletu",
        "Name[pt]": "Teste de elemento",
        "Name[sl]": "Preizkus appleta",
        "Name[sv]": "Miniprogramtest",
        "Name[tr]": "Uygulamacık Sınaması",
        "Name[uk]": "Тест аплету",
        "Name[vi]": "Kiểm thử tiểu ứng dụng",
        "Name[x-test]": "xxApplet Testxx",
        "Name[zh_CN]": "小部件测试",
        "ServiceTypes": [
            "Plasma/Applet"
        ],
        "Version": "",
        "Website": ""
    },
    "Keywords": "",
    "X-KDE-ParentApp": "",
    "X-Plasma-API": "declarativeappletscript",
    "X-Plasma-MainScript": "ui/main.qml"
}
