{
    "KPlugin": {
        "Authors": [
            {
                "Email": "mart@kde.org",
                "Name": "Marco Martin",
                "Name[az]": "Marco Martin",
                "Name[ca@valencia]": "Marco Martin",
                "Name[ca]": "Marco Martin",
                "Name[cs]": "Marco Martin",
                "Name[en_GB]": "Marco Martin",
                "Name[es]": "Marco Martin",
                "Name[eu]": "Marco Martin",
                "Name[fi]": "Marco Martin",
                "Name[fr]": "Marco Martin",
                "Name[it]": "Marco Martin",
                "Name[ko]": "Marco Martin",
                "Name[nl]": "Marco Martin",
                "Name[pl]": "Marco Martin",
                "Name[pt]": "Marco Martin",
                "Name[ru]": "Marco Martin",
                "Name[sl]": "Marco Martin",
                "Name[sv]": "Marco Martin",
                "Name[tr]": "Marco Martin",
                "Name[uk]": "Marco Martin",
                "Name[vi]": "Marco Martin",
                "Name[x-test]": "xxMarco Martinxx",
                "Name[zh_CN]": "Marco Martin"
            }
        ],
        "Category": "Windows and Tasks",
        "Description": "Example showing how to display window thumbnails",
        "Description[az]": "Pəncərə miniatürlərinin necə göstəriləcəyinə nümunə",
        "Description[ca@valencia]": "Exemple que mostra com visualisar miniatures de les finestres",
        "Description[ca]": "Exemple que mostra com visualitzar miniatures de les finestres",
        "Description[en_GB]": "Example showing how to display window thumbnails",
        "Description[es]": "Ejemplo que enseña cómo mostrar miniaturas de ventanas",
        "Description[eu]": "Leihoen koadro-txikiak nola azaldu erakusten duen adibidea",
        "Description[fi]": "Esimerkki siitä, miten esittää ikkunoiden pienoiskuvia",
        "Description[fr]": "Exemple montrant comment afficher les vignettes de fenêtres",
        "Description[it]": "Esempio che mostra come visualizzare le miniature delle finestre",
        "Description[ko]": "창 축소판을 보여 주는 방법 예제",
        "Description[nl]": "Voorbeeld van hoe miniaturen van vensters te tonen",
        "Description[pl]": "Przykład pokazujący sposób wyświetlania miniatur okien",
        "Description[pt]": "Exemplo que mostra como apresentar miniaturas de janelas",
        "Description[sl]": "Primer, ki prikazuje kako prikazati predogledne sličice okna",
        "Description[sv]": "Exempel som visar hur miniatyrbilder av fönster visas",
        "Description[tr]": "Pencere küçük görsellerinin nice gösterileceğini anlatan örnek",
        "Description[uk]": "Приклад, який демонструє показ мініатюр вікон",
        "Description[vi]": "Ví dụ cho thấy cách hiển thị hình nhỏ của cửa sổ",
        "Description[x-test]": "xxExample showing how to display window thumbnailsxx",
        "Description[zh_CN]": "窗口缩略图显示示例",
        "Icon": "preferences-system-windows",
        "Id": "org.kde.example.windowthumbnails",
        "License": "GPL",
        "Name": "Example window thumbnails list",
        "Name[az]": "Pəncərə miniatür nümunəsi siyahısı",
        "Name[ca@valencia]": "Exemple de llista de miniatures de les finestres",
        "Name[ca]": "Exemple de llista de miniatures de les finestres",
        "Name[en_GB]": "Example window thumbnails list",
        "Name[es]": "Ejemplo de lista de miniaturas de ventanas",
        "Name[eu]": "Adibide leiho koadro-txikien zerrenda",
        "Name[fi]": "Esimerkki ikkunapienoiskuvaluettelosta",
        "Name[fr]": "Exemple de liste de vignettes de fenêtres",
        "Name[it]": "Esempio di elenco di miniature delle finestre",
        "Name[ko]": "창 축소판 목록 예제",
        "Name[nl]": "Voorbeeld van lijst met miniaturen van vensters",
        "Name[pl]": "Przykładowe wykazem miniatur okien",
        "Name[pt]": "Lista de exemplo de miniaturas das janelas",
        "Name[sl]": "Seznam predoglednih sličic okna primera",
        "Name[sv]": "Exempel på miniatyrbilder av fönster",
        "Name[tr]": "Örnek pencere küçük görseller listesi",
        "Name[uk]": "Приклад списку мініатюр вікон",
        "Name[vi]": "Danh sách ví dụ các hình nhỏ của cửa sổ",
        "Name[x-test]": "xxExample window thumbnails listxx",
        "Name[zh_CN]": "窗口缩略图列表示例",
        "ServiceTypes": [
            "Plasma/Applet"
        ],
        "Version": "",
        "Website": ""
    },
    "Keywords": "",
    "X-KDE-ParentApp": "",
    "X-Plasma-API": "declarativeappletscript",
    "X-Plasma-MainScript": "ui/main.qml"
}
