{
    "KPlugin": {
        "Authors": [
            {
                "Email": "aseigo@kde.org",
                "Name": "Aaron Seigo",
                "Name[ar]": "Aaron Seigo",
                "Name[az]": "Aaron Seigo",
                "Name[ca@valencia]": "Aaron Seigo",
                "Name[ca]": "Aaron Seigo",
                "Name[cs]": "Aaron Seigo",
                "Name[da]": "Aaron Seigo",
                "Name[de]": "Aaron Seigo",
                "Name[el]": "Aaron Seigo",
                "Name[en_GB]": "Aaron Seigo",
                "Name[es]": "Aaron Seigo",
                "Name[et]": "Aaron Seigo",
                "Name[eu]": "Aaron Seigo",
                "Name[fi]": "Aaron Seigo",
                "Name[fr]": "Aaron Seigo",
                "Name[gl]": "Aaron Seigo",
                "Name[hu]": "Aaron Seigo",
                "Name[ia]": "Aaron Seigo",
                "Name[id]": "Aaron Seigo",
                "Name[it]": "Aaron Seigo",
                "Name[ko]": "Aaron Seigo",
                "Name[lt]": "Aaron Seigo",
                "Name[nl]": "Aaron Seigo",
                "Name[nn]": "Aaron Seigo",
                "Name[pl]": "Aaron Seigo",
                "Name[pt]": "Aaron Seigo",
                "Name[pt_BR]": "Aaron Seigo",
                "Name[ro]": "Aaron Seigo",
                "Name[ru]": "Aaron Seigo",
                "Name[sk]": "Aaron Seigo",
                "Name[sl]": "Aaron Seigo",
                "Name[sr@ijekavian]": "Арон Џ. Сајго",
                "Name[sr@ijekavianlatin]": "Aron Dž. Sajgo",
                "Name[sr@latin]": "Aron Dž. Sajgo",
                "Name[sr]": "Арон Џ. Сајго",
                "Name[sv]": "Aaron Seigo",
                "Name[tg]": "Аарон Сейго (Aaron Seigo)",
                "Name[tr]": "Aaron Seigo",
                "Name[uk]": "Aaron Seigo",
                "Name[vi]": "Aaron Seigo",
                "Name[x-test]": "xxAaron Seigoxx",
                "Name[zh_CN]": "Aaron Seigo",
                "Name[zh_TW]": "Aaron Seigo"
            }
        ],
        "Category": "Examples",
        "Description": "A demonstration of how to subclass DataContainer",
        "Description[az]": "DataContainer alt sinifinin necə göstəriləcəyi nümunəsi",
        "Description[ca@valencia]": "Una demostració de com utilisar la subclasse «DataContainer»",
        "Description[ca]": "Una demostració de com usar la subclasse «DataContainer»",
        "Description[en_GB]": "A demonstration of how to subclass DataContainer",
        "Description[es]": "Una demostración de cómo subclasificar DataContainer",
        "Description[eu]": "«DataContainer» azpiklase bat egiteko erakustaldi bat",
        "Description[fi]": "Näyte miten aliluokitella tietosäilöjä",
        "Description[fr]": "Une démonstration sur comment utiliser la sous-classe des conteneurs de données",
        "Description[it]": "Una dimostrazione di come creare sottoclassi di DataContainer",
        "Description[ko]": "DataContainer 파생 클래스를 작성하는 방법 시연",
        "Description[nl]": "Een demonstratie van hoe een subklasse toe te kennen aan een gegevenscontainer",
        "Description[pl]": "Przedstawienie sposobu tworzenia podklasy pojemnika danych",
        "Description[pt]": "Uma demonstração da criação de sub-classes do DataContainer",
        "Description[sl]": "Demonstracija kako pridobiti podrazred vsebnika podatkov",
        "Description[sv]": "En demonstration av hur en delklass av DataContainer skapas",
        "Description[tr]": "DataContainer'dan nice sınıf alınacağının gösterimi",
        "Description[uk]": "Демонстрація створення підкласу DataContainer",
        "Description[vi]": "Ví dụ minh hoạ việc kế thừa lớp DataContainer",
        "Description[x-test]": "xxA demonstration of how to subclass DataContainerxx",
        "Description[zh_CN]": "继承数据容器类的示例",
        "EnabledByDefault": true,
        "Icon": "plasma",
        "Id": "org.kde.examples.customDataContainers",
        "License": "BSD",
        "Name": "Custom DataContainers",
        "Name[az]": "DataContainer qeyri-standart elementləri",
        "Name[ca@valencia]": "«DataContainers» personalisats",
        "Name[ca]": "«DataContainers» personalitzats",
        "Name[en_GB]": "Custom DataContainers",
        "Name[es]": "Contenedores de datos personalizados",
        "Name[eu]": "Norberak finkatutako «DataContainer»rak",
        "Name[fi]": "Omat tietosäilöt",
        "Name[fr]": "Conteneurs personnalisés de données",
        "Name[it]": "DataContainer personalizzati",
        "Name[ko]": "사용자 정의 데이터 컨테이너",
        "Name[nl]": "Aangepaste gegevenscontainers",
        "Name[pl]": "Własne pojemniki danych",
        "Name[pt]": "Contentores de Dados Personalizados",
        "Name[sl]": "Vsebniki podatkov po meri",
        "Name[sv]": "Egen DataContainer",
        "Name[tr]": "Özel DataContainer'lar",
        "Name[uk]": "Нетипові контейнери даних",
        "Name[vi]": "DataContainer riêng",
        "Name[x-test]": "xxCustom DataContainersxx",
        "Name[zh_CN]": "自定义数据容器",
        "ServiceTypes": [
            "Plasma/DataEngine"
        ],
        "Version": "1.0",
        "Website": "https://plasma.kde.org/"
    }
}
